{
    "KPlugin": {
        "Description": "Have a terminal at the ready, using KDE's Konsole widget",
        "Description[az]": "KDE-nin Konsole vidjetinə əsaslanan hazır terminal",
        "Description[ca@valencia]": "Té un terminal preparat, usant el giny del Konsole de KDE",
        "Description[ca]": "Té un terminal preparat, usant el giny del Konsole de KDE",
        "Description[de]": "Stellt ein Terminal mit KDE's Konsole bereit",
        "Description[el]": "Ένα πρόχειρο τερματικό, με χρήση του γραφικού συστατικού της κονσόλας του KDE",
        "Description[en_GB]": "Have a terminal at the ready, using KDE's Konsole widget",
        "Description[es]": "Disponer de una terminal a punto, usando el widget de Konsole de KDE",
        "Description[eu]": "Izan terminal bat prest, KDEren Konsole trepeta erabiliz",
        "Description[fi]": "Pääte aina valmiina KDE:n Konsole-sovelman avulla",
        "Description[fr]": "Conservez un terminal à disposition grâce au composant graphique Konsole de KDE",
        "Description[hu]": "Használatra kész terminál a KDE Konsole elemének használatával",
        "Description[ia]": "Tu ha un termin preste, usante le widget de Konsole de KDE",
        "Description[it]": "Avere un terminale pronto, usando l'oggetto Konsole di KDE",
        "Description[ko]": "KDE의 Konsole 위젯을 사용하여 곧바로 터미널 열기",
        "Description[nl]": "Een terminal gereed hebben, met gebruik van de Konsole-widget van KDE",
        "Description[pl]": "Miej terminal pod ręką przy użyciu elementu Konsoli KDE",
        "Description[pt]": "Ter um terminal à disposição, usando o módulo do Konsole do KDE",
        "Description[ru]": "Удобный доступ к терминалу с помощью виджета Konsole KDE",
        "Description[sl]": "Imej pripravljen terminal z uporabo gradnika KDE Konsole",
        "Description[sv]": "Ha en terminal redo genom att använda KDE:s grafiska terminalkomponent",
        "Description[tr]": "KDE'nin Konsole araç takımını kullanarak elinizin altında bir uçbirim bulundurun",
        "Description[uk]": "Термінал на основі віджета Konsole KDE",
        "Description[vi]": "Có một trình dòng lệnh luôn sẵn sàng, với phụ kiện Konsole của KDE",
        "Description[x-test]": "xxHave a terminal at the ready, using KDE's Konsole widgetxx",
        "Description[zh_CN]": "使用 KDE的 Konsole 小部件作为可用的终端。",
        "Name": "Terminal Tool View",
        "Name[az]": "Terminal görünüşü",
        "Name[ca@valencia]": "Vista d'eina del terminal",
        "Name[ca]": "Vista d'eina del terminal",
        "Name[cs]": "Nástroj zobrazující terminál",
        "Name[de]": "Werkzeugansicht für Terminal",
        "Name[el]": "Προβολή εργαλείων τερματικού",
        "Name[en_GB]": "Terminal Tool View",
        "Name[es]": "Vista de la herramienta de terminal",
        "Name[eu]": "Terminal tresnaren ikuspegia",
        "Name[fi]": "Päätetyökalunäkymä",
        "Name[fr]": "Vue des outils du terminal",
        "Name[hu]": "Terminál eszköznézet",
        "Name[ia]": "Vista de instrumento Terminal",
        "Name[it]": "Vista dello strumento Terminale",
        "Name[ko]": "터미널 도구 보기",
        "Name[my]": "တာမီနယ်ကိရိယာမြင်ကွင်း",
        "Name[nl]": "Terminalweergave",
        "Name[pl]": "Widok narzędzia terminala",
        "Name[pt]": "Área de Terminal",
        "Name[ru]": "Встроенный терминал",
        "Name[sl]": "Pogled orodja terminala",
        "Name[sv]": "Terminalverktygsvy",
        "Name[tr]": "Uçbirim Araç Görünümü",
        "Name[uk]": "Інструмент термінала",
        "Name[vi]": "Khung xem công cụ dòng lệnh",
        "Name[x-test]": "xxTerminal Tool Viewxx",
        "Name[zh_CN]": "终端工具视图",
        "ServiceTypes": [
            "KTextEditor/Plugin"
        ]
    }
}
